{
    "additional-repositories": [
        "multilib"
    ],
    "archinstall-language": "English",
    "audio_config": {
        "audio": "pipewire"
    },
    "bootloader": "Systemd-boot",
    "config_version": "2.7.1",
    "debug": false,
    "disk_config": {
        "config_type": "default_layout",
        "device_modifications": [
            {
                "device": "/dev/sda",
                "partitions": [
                    {
                        "btrfs": [],
                        "dev_path": null,
                        "flags": [
                            "Boot",
                            "ESP"
                        ],
                        "fs_type": "fat32",
                        "mount_options": [],
                        "mountpoint": "/boot",
                        "obj_id": "c4ed9721-c1fd-4468-8b86-a3aff8528196",
                        "size": {
                            "sector_size": {
                                "unit": "B",
                                "value": 512
                            },
                            "unit": "MiB",
                            "value": 512
                        },
                        "start": {
                            "sector_size": {
                                "unit": "B",
                                "value": 512
                            },
                            "unit": "MiB",
                            "value": 1
                        },
                        "status": "create",
                        "type": "primary"
                    },
                    {
                        "btrfs": [],
                        "dev_path": null,
                        "flags": [],
                        "fs_type": "ext4",
                        "mount_options": [],
                        "mountpoint": "/",
                        "obj_id": "af6f02e6-4246-46a9-8603-e04779b4a66f",
                        "size": {
                            "sector_size": {
                                "unit": "B",
                                "value": 512
                            },
                            "unit": "B",
                            "value": 499568893952
                        },
                        "start": {
                            "sector_size": {
                                "unit": "B",
                                "value": 512
                            },
                            "unit": "B",
                            "value": 537919488
                        },
                        "status": "create",
                        "type": "primary"
                    }
                ],
                "wipe": true
            }
        ]
    },
    "hostname": "conputer",
    "kernels": [
        "linux"
    ],
    "locale_config": {
        "kb_layout": "us",
        "sys_enc": "UTF-8",
        "sys_lang": "en_US"
    },
    "mirror_config": {
        "custom_mirrors": [],
        "mirror_regions": {
            "Greece": [
                "https://repo.greeklug.gr/data/pub/linux/archlinux/$repo/os/$arch",
                "http://ftp.otenet.gr/linux/archlinux/$repo/os/$arch",
                "http://ftp.ntua.gr/pub/linux/archlinux/$repo/os/$arch",
                "http://ftp.cc.uoc.gr/mirrors/linux/archlinux/$repo/os/$arch"
            ]
        }
    },
    "network_config": {
        "type": "nm"
    },
    "no_pkg_lookups": false,
    "ntp": true,
    "offline": false,
    "packages": [
        "firefox",
        "vim",
        "tmux",
        "htop",
        "neofetch",
        "docker",
        "openssh"
    ],
    "parallel downloads": 0,
    "profile_config": {
        "gfx_driver": "All open-source",
        "greeter": "sddm",
        "profile": {
            "custom_settings": {
                "Kde": {}
            },
            "details": [
                "Kde"
            ],
            "main": "Desktop"
        }
    },
    "script": "guided",
    "silent": false,
    "skip_ntp": false,
    "skip_version_check": false,
    "swap": true,
    "timezone": "Europe/Athens",
    "uki": false,
    "version": "2.7.1"
}